TRISCProject-PartC/Lab5ALU/SubComps/Lab5AdderSubovr/simulation/qsim/addersubovr.msim.vcd
$comment
	File created using the following command:
		vcd file addersubovr.msim.vcd -direction
$end
$date
	Sat Sep 27 00:55:50 2014
$end
$version
	ModelSim Version 10.1d
$end
$timescale
	1ps
$end
$scope module addersubovr_vlg_vec_tst $end
$var reg 1 ! A0 $end
$var reg 1 " A1 $end
$var reg 1 # A2 $end
$var reg 1 $ A3 $end
$var reg 1 % B0 $end
$var reg 1 & B1 $end
$var reg 1 ' B2 $end
$var reg 1 ( B3 $end
$var reg 1 ) SignalIn $end
$var wire 1 * CarryOut $end
$var wire 1 + OVR $end
$var wire 1 , S0 $end
$var wire 1 - S1 $end
$var wire 1 . S2 $end
$var wire 1 / S3 $end
$var wire 1 0 sampler $end
$scope module i1 $end
$var wire 1 1 gnd $end
$var wire 1 2 vcc $end
$var wire 1 3 unknown $end
$var tri1 1 4 devclrn $end
$var tri1 1 5 devpor $end
$var tri1 1 6 devoe $end
$var wire 1 7 B0~combout $end
$var wire 1 8 A0~combout $end
$var wire 1 9 inst|inst5~0_combout $end
$var wire 1 : B1~combout $end
$var wire 1 ; A1~combout $end
$var wire 1 < SignalIn~combout $end
$var wire 1 = inst|inst6~0_combout $end
$var wire 1 > inst2|inst5~combout $end
$var wire 1 ? A2~combout $end
$var wire 1 @ inst2|inst6~0_combout $end
$var wire 1 A B2~combout $end
$var wire 1 B inst3|inst5~0_combout $end
$var wire 1 C B3~combout $end
$var wire 1 D A3~combout $end
$var wire 1 E inst3|inst6~0_combout $end
$var wire 1 F inst4|inst5~0_combout $end
$var wire 1 G inst4|inst6~0_combout $end
$var wire 1 H inst1|inst2~combout $end
$upscope $end
$upscope $end
$enddefinitions $end
#0
$dumpvars
0!
0"
0#
0$
0%
0&
0'
0(
0)
0*
0+
0,
0-
0.
0/
x0
01
12
x3
14
15
16
07
08
09
0:
0;
0<
0=
0>
0?
0@
0A
0B
0C
0D
0E
0F
0G
0H
$end
#50000
1$
1(
1D
1C
00
1H
1G
1+
1*
#100000
1#
1'
0$
0(
1?
1A
0D
0C
10
1E
0H
0G
1H
1F
0+
0*
1+
1/
#150000
1$
1(
1D
1C
00
0H
1G
0+
1*
#200000
1"
1&
0#
0'
0$
0(
1;
1:
0?
0A
0D
0C
10
1@
0E
1H
0G
1B
0H
0F
1+
0*
1.
0+
0/
#250000
1$
1(
1D
1C
00
1H
1G
1+
1*
#300000
1#
1'
0$
0(
1?
1A
0D
0C
10
1E
0H
0G
1H
1F
0+
0*
1+
1/
#350000
1$
1(
1D
1C
00
0H
1G
0+
1*
#400000
1!
1%
0"
0&
0#
0'
0$
0(
18
17
0;
0:
0?
0A
0D
0C
10
1=
0@
0E
1H
0G
1>
0B
0H
0F
1+
0*
1-
0.
0+
0/
#450000
1$
1(
1D
1C
00
1H
1G
1+
1*
#500000
1#
1'
0$
0(
1?
1A
0D
0C
10
1E
0H
0G
1H
1F
0+
0*
1+
1/
#550000
1$
1(
1D
1C
00
0H
1G
0+
1*
#600000
1"
1&
0#
0'
0$
0(
1;
1:
0?
0A
0D
0C
10
1@
0E
1H
0G
1B
0H
0F
1+
0*
1.
0+
0/
#650000
1$
1(
1D
1C
00
1H
1G
1+
1*
#700000
1#
1'
0$
0(
1?
1A
0D
0C
10
1E
0H
0G
1H
1F
0+
0*
1+
1/
#750000
1$
1(
1D
1C
00
0H
1G
0+
1*
#800000
1)
0!
0%
0"
0&
0#
0'
0$
0(
1<
08
07
0;
0:
0?
0A
0D
0C
10
0F
0B
0>
0/
0.
0-
#850000
1$
1(
1D
1C
00
#900000
1#
1'
0$
0(
1?
1A
0D
0C
10
#950000
1$
1(
1D
1C
00
#1000000
1"
1&
0#
0'
0$
0(
1;
1:
0?
0A
0D
0C
10
#1050000
1$
1(
1D
1C
00
#1100000
1#
1'
0$
0(
1?
1A
0D
0C
10
#1150000
1$
1(
1D
1C
00
#1200000
1!
1%
0"
0&
0#
0'
0$
0(
18
17
0;
0:
0?
0A
0D
0C
10
#1250000
1$
1(
1D
1C
00
#1300000
1#
1'
0$
0(
1?
1A
0D
0C
10
#1350000
1$
1(
1D
1C
00
#1400000
1"
1&
0#
0'
0$
0(
1;
1:
0?
0A
0D
0C
10
#1450000
1$
1(
1D
1C
00
#1500000
1#
1'
0$
0(
1?
1A
0D
0C
10
#1550000
1$
1(
1D
1C
00
#1600000
0)
0!
0%
0"
0&
0#
0'
0$
0(
0<
08
07
0;
0:
0?
0A
0D
0C
10
1H
0G
1F
0E
1B
0@
1>
0=
0H
0F
0B
0>
1+
0*
1/
1.
1-
0+
0/
0.
0-
