TRISCProject-PartC/Lab5ALU/simulation/qsim/alu.msim.vcd
$comment
	File created using the following command:
		vcd file alu.msim.vcd -direction
$end
$date
	Sun Nov 09 23:51:41 2014
$end
$version
	ModelSim Version 10.1d
$end
$timescale
	1ps
$end
$scope module alu_vlg_vec_tst $end
$var reg 1 ! A0 $end
$var reg 1 " A1 $end
$var reg 1 # A2 $end
$var reg 1 $ A3 $end
$var reg 1 % B0 $end
$var reg 1 & B1 $end
$var reg 1 ' B2 $end
$var reg 1 ( B3 $end
$var reg 1 ) S0 $end
$var reg 1 * S1 $end
$var wire 1 + Cout $end
$var wire 1 , OVR $end
$var wire 1 - R0 $end
$var wire 1 . R1 $end
$var wire 1 / R2 $end
$var wire 1 0 R3 $end
$var wire 1 1 sampler $end
$scope module i1 $end
$var wire 1 2 gnd $end
$var wire 1 3 vcc $end
$var wire 1 4 unknown $end
$var tri1 1 5 devclrn $end
$var tri1 1 6 devpor $end
$var tri1 1 7 devoe $end
$var wire 1 8 S0~combout $end
$var wire 1 9 A3~combout $end
$var wire 1 : B3~combout $end
$var wire 1 ; B0~combout $end
$var wire 1 < A0~combout $end
$var wire 1 = inst4|inst|inst6~0_combout $end
$var wire 1 > B1~combout $end
$var wire 1 ? A1~combout $end
$var wire 1 @ inst4|inst2|inst6~0_combout $end
$var wire 1 A A2~combout $end
$var wire 1 B inst4|inst3|inst6~0_combout $end
$var wire 1 C inst4|inst1|inst2~combout $end
$var wire 1 D inst4|inst4|inst6~0_combout $end
$var wire 1 E S1~combout $end
$var wire 1 F inst3|inst|inst4~0_combout $end
$var wire 1 G inst3|inst2|inst4~0_combout $end
$var wire 1 H inst3|inst2|inst4~1_combout $end
$var wire 1 I B2~combout $end
$var wire 1 J inst3|inst4|inst4~0_combout $end
$var wire 1 K inst3|inst4|inst4~1_combout $end
$var wire 1 L inst3|inst5|inst4~0_combout $end
$var wire 1 M inst3|inst5|inst4~1_combout $end
$upscope $end
$upscope $end
$enddefinitions $end
#0
$dumpvars
0!
1"
1#
0$
1%
0&
0'
0(
0)
0*
0+
0,
0-
0.
0/
00
x1
02
13
x4
15
16
17
08
09
0:
1;
0<
0=
0>
1?
0@
1A
0B
0C
0D
0E
0F
1G
0H
0I
0J
0K
0L
0M
$end
#50000
0%
1&
0;
1>
01
1H
1@
1B
1.
1C
1,
#100000
0#
1(
1%
0&
0A
1:
1;
0>
11
0B
1L
1D
0C
0H
0@
0D
1+
0,
0.
0+
#150000
1!
0"
1$
1'
1#
1&
1<
0?
19
1I
1A
1>
01
1F
1=
0G
1M
1D
1C
1K
1B
1H
1@
0H
0C
1-
10
1+
1,
1/
1.
0.
0,
#200000
0!
0'
0&
0<
0I
0>
11
0F
0=
0K
0@
0B
0-
0/
1C
1,
#250000
0%
1"
0#
1'
1&
0;
1?
0A
1I
1>
01
1G
1@
1H
1B
0C
1.
0,
#300000
0$
1%
1#
09
1;
1A
11
0M
1K
00
1/
#350000
1!
0"
1$
0#
1<
0?
19
0A
01
1F
1=
0G
0@
1M
0K
1@
0H
0B
1-
10
0/
1B
1C
0.
0C
1,
0,
#400000
x*
x)
x(
x'
x&
x%
x!
x"
x$
x#
xE
x8
x:
xI
x>
x;
x<
x?
x9
xA
11
xM
xL
xK
xJ
xH
xG
xF
xD
xC
xB
x@
x=
x0
x/
x.
x-
x+
x,
#450000
0*
1)
0(
0'
0&
1%
0!
1"
0$
1#
0E
18
0:
0I
0>
1;
0<
1?
09
1A
01
0L
1J
1G
1F
0C
1B
1@
0=
0M
1K
1H
1D
1-
0,
00
1/
1.
1+
#500000
1&
0%
1>
0;
11
0H
0@
0F
1=
1@
0.
0-
#550000
1(
0#
0&
1%
1:
0A
0>
1;
01
1L
0D
1C
0K
1H
1F
0=
1M
0+
1,
0/
1.
1-
10
#600000
1'
1!
0"
1$
1#
1&
1I
1<
0?
19
1A
1>
11
0F
1=
0G
0@
0M
1D
0C
0H
1H
0B
0-
00
1+
0,
0.
0D
1.
0+
#650000
0'
0!
0&
0I
0<
0>
01
1K
1B
1F
0=
0H
1@
1D
0@
1/
1-
0.
1+
#700000
0%
1"
0#
1'
1&
0;
1?
0A
1I
1>
11
0F
1=
1G
0B
1H
1@
0H
0D
0-
1.
0.
0+
#750000
0$
1%
1#
09
1;
1A
01
1M
1F
0=
0K
1B
0@
1C
10
1-
0/
0B
1,
0C
0,
#800000
1!
0"
1$
0#
1<
0?
19
0A
11
0F
1=
0G
0M
1K
1H
0-
00
1/
1.
#850000
x*
x)
x(
x'
x&
x%
x!
x"
x$
x#
xE
x8
x:
xI
x>
x;
x<
x?
x9
xA
01
xM
xL
xK
xJ
xH
xG
xF
xD
xC
xB
x@
x=
x0
x/
x.
x-
x+
x,
#900000
1*
0)
0(
0'
0&
1%
0!
1"
0$
1#
1E
08
0:
0I
0>
1;
0<
1?
09
1A
11
1F
0D
0=
1G
0@
1-
0+
1H
0J
0B
1K
0L
0C
1.
0M
1/
0,
00
#950000
1&
0%
1>
0;
01
0H
1@
0F
1J
1B
0.
0-
0K
1L
1C
1M
0/
1,
10
#1000000
1(
0#
0&
1%
1:
0A
0>
1;
11
0L
1D
0C
1K
0B
1H
0@
1F
0M
1L
0D
0J
1+
0,
1/
1.
1-
1M
0K
00
0+
10
0/
#1050000
1'
1!
0"
1$
1#
1&
1I
1<
0?
19
1A
1>
01
1B
0F
1=
0G
0M
1D
1C
0H
0L
0C
1G
1@
1H
0-
00
1+
1,
0.
1M
0H
1J
0,
1.
1K
10
0.
1/
#1100000
0'
0!
0&
0I
0<
0>
11
0K
1F
0=
1H
0@
0G
0J
0B
0/
1-
1.
0H
1K
1L
1C
0M
0.
1/
1,
00
#1150000
0%
1"
0#
1'
1&
0;
1?
0A
1I
1>
01
0F
1G
1@
1H
0H
1J
1B
0-
1.
0K
0L
0C
0.
1M
0/
0,
10
#1200000
0$
1%
1#
09
1;
1A
11
0M
1F
1K
00
1-
1/
#1250000
1!
0"
1$
0#
1<
0?
19
0A
01
0F
1=
0G
0@
1M
0K
1G
1@
1H
0J
0B
0-
10
0/
0H
1J
1B
1K
1L
1C
1.
0K
0L
0C
0M
0.
1/
1,
1M
0/
0,
00
10
#1300000
x*
x)
x(
x'
x&
x%
x!
x"
x$
x#
xE
x8
x:
xI
x>
x;
x<
x?
x9
xA
11
xM
xL
xK
xJ
xH
xG
xF
xD
xC
xB
x@
x=
x0
x/
x.
x-
x+
x,
#1350000
1*
1)
0(
0'
0&
1%
0!
1"
0$
1#
1E
18
0:
0I
0>
1;
0<
1?
09
1A
01
1F
0C
1B
1@
0=
1L
1D
0J
1G
1-
0,
0M
1K
0H
1+
00
1/
0.
#1400000
1&
0%
1>
0;
11
1H
0@
0F
1=
1J
0G
1@
1.
0-
0K
0H
0J
1K
0/
0.
1/
#1450000
1(
0#
0&
1%
1:
0A
0>
1;
01
0L
0D
1C
0K
1H
1F
0=
1M
1G
0+
1,
0/
1.
1-
0H
10
0.
#1500000
1'
1!
0"
1$
1#
1&
1I
1<
0?
19
1A
1>
11
0F
1=
0G
0@
0M
1D
0C
1H
1G
0H
1J
0B
0-
00
1+
0,
1.
1H
1K
1L
0D
0.
1M
1.
1/
0+
10
#1550000
0'
0!
0&
0I
0<
0>
01
0K
1B
1F
0=
0H
1@
0L
1D
0G
0@
0J
0/
1-
0.
0M
1H
1J
1K
1+
0K
00
1.
1/
0/
#1600000
0%
1"
0#
1'
1&
0;
1?
0A
1I
1>
11
0F
1=
1G
0B
0H
0G
1@
1H
1L
0D
0-
0.
0H
0J
1M
1.
0+
1K
0.
10
1/
#1650000
0$
1%
1#
09
1;
1A
01
0M
1F
0=
0K
1B
1G
0@
0L
1C
00
1-
0/
1H
1J
0B
1M
1,
1K
1L
0C
1.
10
0M
1/
0,
00
#1700000
1!
0"
1$
0#
1<
0?
19
0A
11
0F
1=
0G
1M
0K
1G
0H
0-
10
0/
1H
0.
1.
#1750000
0*
0)
0(
0'
0&
0%
0!
0$
0E
08
0:
0I
0>
0;
0<
09
01
0M
0L
0J
0H
0G
0=
00
0.
